## Interface: 11200
## Title: ActionMirroringFrame
## Notes: create a frame mirroring used actions.
## SavedVariables: ActionMirroringSettings
## Version: 1.3.3
## Author: WobLight
MirrorTemplate.xml
ActionMirroringFrame.xml
